<?xml version="1.0" encoding="UTF-8" standalone="no"?>
<svg
   xmlns:dc="http://purl.org/dc/elements/1.1/"
   xmlns:cc="http://creativecommons.org/ns#"
   xmlns:rdf="http://www.w3.org/1999/02/22-rdf-syntax-ns#"
   xmlns:svg="http://www.w3.org/2000/svg"
   xmlns="http://www.w3.org/2000/svg"
   xmlns:sodipodi="http://sodipodi.sourceforge.net/DTD/sodipodi-0.dtd"
   xmlns:inkscape="http://www.inkscape.org/namespaces/inkscape"
   version="1.1"
   id="Layer_1"
   x="0px"
   y="0px"
   viewBox="0 0 2699.9114 1246.1306"
   enable-background="new 0 0 2699.9114 1246.1306"
   xml:space="preserve"
   inkscape:version="0.91 r13725"
   sodipodi:docname="eye-top.svg"><metadata
     id="metadata35"><rdf:RDF><cc:Work
         rdf:about=""><dc:format>image/svg+xml</dc:format><dc:type
           rdf:resource="http://purl.org/dc/dcmitype/StillImage" /><dc:title></dc:title></cc:Work></rdf:RDF></metadata><defs
     id="defs33" /><sodipodi:namedview
     pagecolor="#ffffff"
     bordercolor="#666666"
     borderopacity="1"
     objecttolerance="10"
     gridtolerance="10"
     guidetolerance="10"
     inkscape:pageopacity="0"
     inkscape:pageshadow="2"
     inkscape:window-width="1920"
     inkscape:window-height="1056"
     id="namedview31"
     showgrid="false"
     inkscape:snap-global="true"
     inkscape:zoom="0.3289464"
     inkscape:cx="2352.052"
     inkscape:cy="597.76902"
     inkscape:window-x="0"
     inkscape:window-y="24"
     inkscape:window-maximized="1"
     inkscape:current-layer="Layer_1" /><ellipse
     style="fill:#000000;stroke:#000000;stroke-opacity:1"
     id="path3383"
     d="m 1023.2148,-1191.5282 a 1306.9635,408.42609 0 0 1 -10.1654,50.841"
     sodipodi:type="arc"
     sodipodi:open="true"
     sodipodi:start="0"
     sodipodi:end="0.12480396"
     sodipodi:ry="408.42609"
     sodipodi:rx="1306.9635"
     sodipodi:cy="-1191.5282"
     sodipodi:cx="-283.74866" /><g
     id="g3438"><path
       inkscape:connector-curvature="0"
       id="path7"
       d="m 2631.1099,617.5015 c 0,0 -1.9458,1.9937 -5.7612,5.7588 -3.8281,3.7599 -9.5017,9.3488 -17.1008,16.4197 -7.5833,7.0891 -17.0134,15.751 -28.2456,25.7806 -2.8025,2.5146 -5.7244,5.1058 -8.7612,7.7752 -3.0313,2.6766 -6.1626,5.4505 -9.4409,8.2577 -3.2654,2.8239 -6.6418,5.7264 -10.1404,8.6891 -3.4893,2.9751 -7.0847,6.0314 -10.8054,9.1388 -29.6934,24.952 -66.5618,54.336 -110.207,86.3134 -21.7996,16.0214 -45.3853,32.5474 -70.5256,49.5979 -25.1584,17.024 -52.032,34.3188 -80.4106,51.8661 -28.4019,17.5096 -58.4492,35.0278 -89.9365,52.5192 -31.5068,17.4565 -64.5923,34.6174 -99.0281,51.4706 -68.9399,33.5357 -143.6028,65.2895 -223.0106,92.5433 -39.6625,13.7358 -80.5598,26.1482 -122.3861,37.2673 -2.6117,0.7046 -5.2253,1.4095 -7.8409,2.1151 -2.6281,0.6608 -5.2579,1.3221 -7.8898,1.9839 -5.2645,1.323 -10.5366,2.6479 -15.816,3.9749 -2.6422,0.6545 -5.2771,1.3462 -7.9308,1.9716 -2.6558,0.6169 -5.3135,1.2344 -7.9729,1.8522 -5.3196,1.2351 -10.6462,2.4719 -15.9796,3.7102 -5.3279,1.2628 -10.7037,2.35 -16.078,3.4745 -5.3751,1.1219 -10.7567,2.2452 -16.1442,3.3698 -5.3782,1.1703 -10.8087,2.125 -16.2269,3.167 -5.4222,1.0245 -10.8502,2.0502 -16.2836,3.0769 -43.5302,7.8785 -87.756,14.2574 -132.4261,18.3138 -44.6576,4.1315 -89.7111,6.3578 -134.8035,6.4065 -11.1519,-0.1503 -22.3037,-0.3005 -33.4529,-0.4507 -11.3741,-0.4133 -22.7455,-0.8265 -34.1112,-1.2396 -11.2318,-0.6652 -22.4583,-1.3301 -33.6764,-1.9945 -11.1963,-0.9132 -22.3844,-1.8259 -33.5615,-2.7377 -11.1499,-1.1602 -22.2992,-2.2357 -33.4143,-3.4685 -11.0891,-1.4352 -22.1775,-2.774 -33.2216,-4.2891 -5.5127,-0.8175 -11.0212,-1.6344 -16.5255,-2.4506 l -8.2521,-1.225 c -2.7501,-0.4038 -5.4993,-0.8069 -8.2334,-1.29 -5.4751,-0.9242 -10.9454,-1.8474 -16.4106,-2.7699 l -8.1932,-1.3842 -4.093,-0.6936 -4.0764,-0.7695 c -5.4332,-1.0265 -10.8611,-2.0519 -16.2832,-3.0762 -5.4182,-1.0417 -10.8486,-1.9963 -16.2267,-3.1664 -5.3875,-1.1243 -10.7688,-2.2473 -16.1439,-3.3691 -5.3755,-1.118 -10.7494,-2.2142 -16.0721,-3.5 -5.3333,-1.2379 -10.6597,-2.4744 -15.9793,-3.7091 -2.6593,-0.6176 -5.3169,-1.2349 -7.9727,-1.8516 -2.6536,-0.6251 -5.2885,-1.3167 -7.9305,-1.9711 -5.2794,-1.3264 -10.5514,-2.651 -15.8157,-3.9738 -2.6318,-0.6615 -5.2617,-1.3226 -7.8896,-1.9833 -2.6155,-0.7053 -5.2291,-1.4102 -7.8408,-2.1145 -5.2222,-1.4103 -10.4363,-2.8185 -15.6423,-4.2244 -2.6011,-0.708 -5.2003,-1.4154 -7.7972,-2.1223 -2.5855,-0.7457 -5.1689,-1.491 -7.7502,-2.2355 -10.3156,-3.0079 -20.6403,-5.8586 -30.8144,-9.0634 -10.1979,-3.1263 -20.3699,-6.2078 -30.3997,-9.5848 -10.053,-3.306 -20.0814,-6.5499 -29.9738,-10.0492 -79.4055,-27.2493 -154.0634,-59.0106 -222.9976,-92.55 -8.6378,-4.1532 -17.133,-8.4449 -25.5724,-12.6901 -8.4626,-4.1986 -16.7753,-8.5398 -25.0391,-12.8154 -8.2845,-4.2354 -16.4128,-8.6152 -24.4979,-12.9135 -8.1107,-4.2494 -16.0243,-8.7126 -23.9157,-13.048 -7.9041,-4.3125 -15.6421,-8.7672 -23.345,-13.116 -7.7173,-4.3231 -15.2652,-8.7848 -22.7805,-13.1322 -14.9977,-8.7533 -29.629,-17.4772 -43.8107,-26.264 -14.1989,-8.7567 -28.0049,-17.478 -41.4138,-26.1246 -13.4108,-8.6433 -26.4338,-17.1989 -38.9991,-25.7321 -12.58,-8.5095 -24.7549,-16.9128 -36.5168,-25.1807 -11.7697,-8.2559 -23.1188,-16.3887 -34.0133,-24.4063 -43.6507,-31.967 -80.5223,-61.3455 -110.2203,-86.2904 -3.7215,-3.1063 -7.3176,-6.1615 -10.8075,-9.1356 -3.4992,-2.9618 -6.8765,-5.8633 -10.1426,-8.6862 -3.2753,-2.8107 -6.41,-5.5802 -9.4413,-8.2569 -3.0376,-2.6684 -5.9602,-5.2586 -8.7633,-7.7723 -11.2348,-10.0259 -20.6676,-18.6848 -28.2528,-25.7714 -7.6012,-7.0684 -13.2755,-12.6564 -17.1052,-16.4144 -3.8191,-3.7631 -5.7663,-5.7595 -5.7663,-5.7595 l 2.3114,-2.5118 c 0,0 2.0141,1.847 6.0207,5.3745 4.0016,3.5255 9.9782,8.7209 17.8705,15.3881 15.7846,13.332 39.2332,32.5601 69.8681,56.0197 30.634,23.4545 68.4565,51.144 112.9656,81.2651 22.254,15.0588 46.1789,30.7224 71.7062,46.7485 25.5294,16.0212 52.6143,32.483 81.2533,49.0134 57.2611,33.0756 120.6536,66.609 189.4401,98.3799 68.7733,31.7634 142.9589,61.7574 221.4639,87.5541 78.4819,25.7988 161.3061,47.3688 246.7447,62.3138 85.4091,14.9724 173.4346,23.2461 261.5114,23.1488 88.0763,0.083 176.1016,-8.1796 261.5103,-23.1547 85.4384,-14.9446 168.2625,-36.514 246.7443,-62.3124 78.505,-25.7964 152.6906,-55.7897 221.4637,-87.5529 68.7866,-31.7704 132.1792,-65.3035 189.4404,-98.3787 28.6382,-16.5316 55.7258,-32.989 81.2517,-49.0159 25.5276,-16.0257 49.4526,-31.6889 71.7068,-46.7474 44.5095,-30.1203 82.3323,-57.8092 112.9668,-81.2632 30.6353,-23.4592 54.084,-42.6868 69.8689,-56.0186 7.8923,-6.6671 13.8691,-11.8624 17.8706,-15.3879 4.0063,-3.5298 6.0239,-5.3772 6.0239,-5.3772 l 2.3044,2.5179 z" /><path
       inkscape:connector-curvature="0"
       id="path9"
       d="m 69.9572,616.2427 c 0,0 1.9183,-1.9894 5.7102,-5.7739 3.7952,-3.7805 9.4473,-9.3763 16.9723,-16.5174 7.5122,-7.1558 16.8682,-15.891 28.0445,-25.9741 11.1568,-10.1069 24.1502,-21.5408 38.8987,-34.134 29.4928,-25.1887 66.1103,-54.8958 109.4643,-87.3161 21.6873,-16.1932 45.085,-33.0192 70.0794,-50.3303 6.2634,-4.3043 12.6416,-8.6161 19.2813,-12.688 6.637,-4.0759 13.3966,-8.1334 20.316,-12.1033 13.8015,-7.9991 27.764,-16.444 42.2092,-24.7585 57.6946,-33.3881 121.5848,-67.253 190.9598,-99.3641 69.3618,-32.1033 144.2274,-62.4467 223.5318,-88.5779 79.2805,-26.1323 163.025,-48.0206 249.5151,-63.2221 86.4585,-15.2286 175.6677,-23.6939 265.0175,-23.6677 89.3497,-0.0262 178.559,8.4392 265.0175,23.6677 86.4901,15.2015 170.2345,37.0899 249.5151,63.2221 79.3043,26.1311 154.1699,56.4745 223.5316,88.5779 69.375,32.1111 133.2654,65.976 190.96,99.3641 14.4478,8.3101 28.4097,16.7565 42.1858,24.7972 6.915,3.9766 13.6921,8.0057 20.3,12.1283 6.6301,4.0872 12.9458,8.4982 19.2039,12.8094 24.9875,17.3171 48.3853,34.1382 70.0601,50.3453 43.3535,32.4119 79.9756,62.1042 109.4878,87.2623 14.7607,12.5747 27.76,23.9991 38.9316,34.0862 11.188,10.0669 20.5554,18.7874 28.0811,25.9266 7.5356,7.1277 13.2,12.7089 17.0032,16.4802 3.8013,3.7738 5.7224,5.7602 5.7224,5.7602 0,0 -2.1365,-1.7523 -6.3418,-5.0608 -4.2007,-3.3137 -10.4832,-8.1674 -18.7205,-14.4279 -8.2473,-6.2485 -18.4792,-13.8693 -30.5991,-22.6882 -12.1365,-8.7982 -26.1541,-18.8037 -42.0007,-29.78 -31.7007,-21.9377 -70.6587,-47.8505 -116.2639,-75.9464 -22.8037,-14.0433 -47.2275,-28.692 -73.2705,-43.5796 -3.2529,-1.8635 -6.5266,-3.7389 -9.821,-5.6262 -3.2722,-1.9215 -6.5569,-3.8663 -9.8469,-5.847 -3.2903,-1.9801 -6.5544,-4.0469 -9.8442,-6.1168 -3.269,-2.104 -6.5791,-4.1852 -9.917,-6.265 -6.677,-4.157 -13.4424,-8.348 -20.3977,-12.3899 -6.9407,-4.0664 -13.9114,-8.2576 -21.0522,-12.3248 -56.8967,-32.9266 -119.8801,-66.308 -188.1995,-97.9301 -68.3062,-31.6152 -141.9659,-61.4638 -219.8741,-87.1344 -77.8856,-25.6729 -160.041,-47.1362 -244.7394,-62.0226 -84.6699,-14.9137 -171.8835,-23.1785 -259.1113,-23.1529 -87.2278,-0.0256 -174.4414,8.2392 -259.1113,23.1529 -84.6984,14.8864 -166.8538,36.3496 -244.7394,62.0226 -77.9083,25.6706 -151.5681,55.5192 -219.8743,87.1344 -68.3193,31.6221 -131.3026,65.0034 -188.1992,97.9301 -7.1409,4.0671 -14.1116,8.2584 -21.0523,12.3248 -6.954,4.0444 -13.699,8.269 -20.3743,12.4285 -3.338,2.0795 -6.6489,4.1591 -9.9174,6.2639 -3.2891,2.0709 -6.5525,4.1389 -9.8279,6.1429 -6.5698,3.9774 -13.0596,7.9067 -19.5906,11.5946 -26.0359,14.8936 -50.46,29.5375 -73.2511,43.5947 -45.6048,28.0873 -84.5676,53.9855 -116.2877,75.8925 -15.8587,10.9579 -29.8821,20.9539 -42.0333,29.7322 -12.1317,8.8027 -22.3749,16.4088 -30.6358,22.6407 -8.248,6.2471 -14.5429,11.0862 -18.7514,14.3908 -4.2122,3.3008 -6.3544,5.0469 -6.3544,5.0469 z" /><g
       id="g11"><circle
         stroke-miterlimit="10"
         cx="1349.9573"
         cy="616.24268"
         r="411.35751"
         id="circle13"
         style="stroke:#ffffff;stroke-width:6.82700014;stroke-miterlimit:10" /><circle
         stroke-miterlimit="10"
         cx="1349.9573"
         cy="616.24268"
         r="370.22171"
         id="circle15"
         style="stroke:#ffffff;stroke-width:6.82700014;stroke-miterlimit:10" /><circle
         stroke-miterlimit="10"
         cx="1349.9573"
         cy="616.24268"
         r="333.19949"
         id="circle17"
         style="stroke:#ffffff;stroke-width:6.82700014;stroke-miterlimit:10" /><circle
         stroke-miterlimit="10"
         cx="1349.9573"
         cy="616.24268"
         r="299.87961"
         id="circle19"
         style="stroke:#ffffff;stroke-width:6.82700014;stroke-miterlimit:10" /><circle
         stroke-miterlimit="10"
         cx="1349.9573"
         cy="616.24268"
         r="269.8916"
         id="circle21"
         style="stroke:#ffffff;stroke-width:6.82700014;stroke-miterlimit:10" /><circle
         stroke-miterlimit="10"
         cx="1349.9573"
         cy="616.24268"
         r="242.9025"
         id="circle23"
         style="stroke:#ffffff;stroke-width:6.82700014;stroke-miterlimit:10" /><circle
         stroke-miterlimit="10"
         cx="1349.9573"
         cy="616.24268"
         r="218.6122"
         id="circle25"
         style="stroke:#ffffff;stroke-width:6.82700014;stroke-miterlimit:10" /><circle
         stroke-miterlimit="10"
         cx="1349.9573"
         cy="616.24268"
         r="196.75101"
         id="circle27"
         style="stroke:#ffffff;stroke-width:6.82700014;stroke-miterlimit:10" /><circle
         cx="1248.1512"
         cy="573.29492"
         r="42.9478"
         id="circle29"
         style="fill:#ffffff" /></g><path
       inkscape:connector-curvature="0"
       id="path9-3"
       d="m 69.003889,616.98163 c 0,0 1.920008,-2.09493 5.715285,-6.08018 3.798581,-3.98105 9.455715,-9.87369 16.987417,-17.39361 7.51889,-7.53538 16.883219,-16.73395 28.069479,-27.35192 11.16673,-10.64305 24.17171,-22.68348 38.93334,-35.9447 29.51906,-26.52488 66.16919,-57.80785 109.5618,-91.94794 21.70661,-17.05219 45.12516,-34.77076 70.14182,-53.00015 6.26898,-4.53263 12.65285,-9.07316 19.29846,-13.36107 6.64293,-4.29211 13.40855,-8.56485 20.33409,-12.74533 13.8138,-8.42343 27.78874,-17.31631 42.24681,-26.07185 57.74599,-35.15924 121.69308,-70.82056 191.12987,-104.63504 69.42358,-33.80627 144.35584,-65.75931 223.73088,-93.27666 79.3511,-27.51854 163.17019,-50.567949 249.73736,-66.575839 86.5355,-16.036425 175.8242,-24.950782 265.2535,-24.923191 89.4293,-0.02759 178.7181,8.88687 265.2536,24.923191 86.5671,16.00789 170.3861,39.057399 249.7373,66.575839 79.375,27.51726 154.3072,59.47027 223.7306,93.27666 69.4369,33.81448 133.3842,69.4758 191.13,104.63504 14.4609,8.75092 28.4351,17.64538 42.2235,26.11261 6.9212,4.18753 13.7044,8.43036 20.3181,12.77165 6.6359,4.30402 12.9573,8.94902 19.221,13.4889 25.0098,18.23572 48.4284,35.94913 70.1225,53.01596 43.3921,34.13125 80.0468,65.39861 109.5854,91.89127 14.7737,13.24175 27.7846,25.27218 38.9662,35.89437 11.1979,10.60092 20.5737,19.784 28.106,27.30192 7.5425,7.5058 13.2118,13.38306 17.0184,17.35441 3.8047,3.97399 5.7275,6.06576 5.7275,6.06576 0,0 -2.1384,-1.84525 -6.3474,-5.32926 -4.2044,-3.48948 -10.4926,-8.60065 -18.7372,-15.19325 -8.2547,-6.57996 -18.4956,-14.60501 -30.6263,-23.89174 -12.1474,-9.2649 -26.1775,-19.80116 -42.0381,-31.35972 -31.7289,-23.10143 -70.7217,-50.38881 -116.3674,-79.97511 -22.8241,-14.78824 -47.2696,-30.21402 -73.3359,-45.89136 -3.2558,-1.96234 -6.5324,-3.93723 -9.8298,-5.92465 -3.275,-2.02341 -6.5626,-4.07138 -9.8556,-6.15715 -3.2933,-2.08514 -6.5603,-4.26158 -9.8529,-6.44129 -3.2719,-2.2156 -6.585,-4.40721 -9.9259,-6.59733 -6.6829,-4.37751 -13.4543,-8.79083 -20.4158,-13.04714 -6.9469,-4.28211 -13.9239,-8.69565 -21.071,-12.97859 -56.9475,-34.67326 -119.9869,-69.82542 -188.3671,-103.12497 -68.367,-33.29229 -142.0923,-64.72426 -220.0699,-91.75659 -77.9549,-27.03476 -160.1835,-49.63662 -244.9574,-65.31269 -84.7454,-15.704836 -172.0365,-24.408056 -259.3421,-24.381097 -87.3056,-0.02697 -174.5968,8.676261 -259.342,24.381097 -84.7739,15.67607 -167.00248,38.27781 -244.95745,65.31269 -77.97767,27.03233 -151.70309,58.4643 -220.07012,91.75659 -68.38015,33.29955 -131.41955,68.45162 -188.36682,103.12497 -7.14726,4.28284 -14.12416,8.69648 -21.07105,12.97859 -6.96018,4.25894 -13.71119,8.70765 -20.39243,13.08779 -3.34099,2.1898 -6.65484,4.37973 -9.92625,6.59618 -3.29202,2.18076 -6.55833,4.35844 -9.83665,6.46876 -6.57565,4.18838 -13.07124,8.32611 -19.60805,12.20966 -26.05909,15.68365 -50.50493,31.10437 -73.31633,45.90724 -45.64541,29.57724 -84.64294,56.84926 -116.39129,79.91836 -15.87282,11.53917 -29.90872,22.06543 -42.07073,31.30939 -12.14251,9.26966 -22.39483,17.27923 -30.663082,23.84172 -8.255346,6.57848 -14.555852,11.67427 -18.7681,15.15418 -4.215951,3.47589 -6.360059,5.31462 -6.360059,5.31462 z" /><path
       inkscape:connector-curvature="0"
       id="path7-6"
       d="m 2630.9179,616.50569 c 0,0 -1.9458,2.12373 -5.7612,6.13439 -3.8281,4.00513 -9.5017,9.95854 -17.1008,17.49061 -7.5833,7.55146 -17.0134,16.77829 -28.2456,27.46203 -2.8025,2.67861 -5.7244,5.43881 -8.7612,8.28231 -3.0313,2.85117 -6.1626,5.80598 -9.4409,8.79627 -3.2654,3.00808 -6.6418,6.09988 -10.1404,9.25581 -3.4893,3.16914 -7.0847,6.42478 -10.8054,9.73484 -29.6934,26.57939 -66.5618,57.87987 -110.207,91.94287 -21.7996,17.06633 -45.3853,34.67017 -70.5256,52.83271 -25.1584,18.13432 -52.032,36.55711 -80.4106,55.24886 -28.4019,18.65159 -58.4492,37.31234 -89.9365,55.94454 -31.5068,18.59503 -64.5923,36.87518 -99.0281,54.82757 -68.9399,35.7229 -143.6028,69.5477 -223.0106,98.579 -39.6625,14.6317 -80.5598,27.8536 -122.3861,39.6979 -2.6117,0.7506 -5.2253,1.5015 -7.8409,2.2531 -2.6281,0.7039 -5.2579,1.4083 -7.8898,2.1133 -5.2645,1.4093 -10.5366,2.8206 -15.816,4.2341 -2.6422,0.6972 -5.2771,1.434 -7.9308,2.1002 -2.6558,0.6572 -5.3135,1.3149 -7.9729,1.973 -5.3196,1.3157 -10.6462,2.6331 -15.9796,3.9522 -5.3279,1.3452 -10.7037,2.5033 -16.078,3.7011 -5.3751,1.1951 -10.7567,2.3916 -16.1442,3.5896 -5.3782,1.2466 -10.8087,2.2636 -16.2269,3.3736 -5.4222,1.0913 -10.8502,2.1839 -16.2836,3.2775 -43.5302,8.3924 -87.756,15.1873 -132.4261,19.5083 -44.6576,4.4009 -89.7111,6.7724 -134.8035,6.8243 -11.1519,-0.1601 -22.3037,-0.3201 -33.4529,-0.4801 -11.3741,-0.4402 -22.7455,-0.8804 -34.1112,-1.3204 -11.2318,-0.7086 -22.4583,-1.4169 -33.6764,-2.1246 -11.1963,-0.9728 -22.3844,-1.945 -33.5615,-2.9163 -11.1499,-1.2358 -22.2992,-2.3815 -33.4143,-3.6947 -11.0891,-1.5288 -22.1775,-2.9549 -33.2216,-4.5688 -5.5127,-0.8708 -11.0212,-1.741 -16.5255,-2.6105 l -8.2521,-1.3049 c -2.7501,-0.4301 -5.4993,-0.8595 -8.2334,-1.3741 -5.4751,-0.9845 -10.9454,-1.9679 -16.4106,-2.9505 l -8.1932,-1.4745 -4.093,-0.7389 -4.0764,-0.8196 c -5.4332,-1.0935 -10.8611,-2.1858 -16.2832,-3.2769 -5.4182,-1.1096 -10.8486,-2.1265 -16.2267,-3.3729 -5.3875,-1.1976 -10.7688,-2.3939 -16.1439,-3.5888 -5.3755,-1.1909 -10.7494,-2.3586 -16.0721,-3.7283 -5.3333,-1.3186 -10.6597,-2.6358 -15.9793,-3.951 -2.65933,-0.6579 -5.31693,-1.3155 -7.97273,-1.9724 -2.6536,-0.6658 -5.2885,-1.4026 -7.9305,-2.0996 -5.2794,-1.4129 -10.5514,-2.8239 -15.8157,-4.233 -2.6318,-0.7047 -5.2617,-1.4089 -7.8896,-2.1127 -2.6155,-0.7513 -5.2291,-1.5021 -7.8408,-2.2524 -5.2222,-1.5023 -10.4363,-3.0023 -15.6423,-4.4999 -2.6011,-0.7542 -5.2003,-1.5077 -7.7972,-2.2607 -2.5855,-0.7943 -5.1689,-1.5883 -7.7502,-2.3813 -10.31563,-3.2041 -20.64033,-6.2407 -30.81443,-9.6545 -10.1979,-3.3302 -20.3699,-6.6127 -30.3997,-10.21 -10.053,-3.5216 -20.0814,-6.9771 -29.9738,-10.7046 -79.4055,-29.0265 -154.0634,-62.8593 -222.9976,-98.5862 -8.6378,-4.424 -17.133,-8.9957 -25.5724,-13.5177 -8.4626,-4.47246 -16.7753,-9.0968 -25.0391,-13.65126 -8.2845,-4.51164 -16.4128,-9.17709 -24.4979,-13.75573 -8.1107,-4.52655 -16.0243,-9.28084 -23.9157,-13.899 -7.9041,-4.59376 -15.6421,-9.339 -23.345,-13.97144 -7.7173,-4.60505 -15.2652,-9.35775 -22.7805,-13.98869 -14.9977,-9.3242 -29.629,-18.61708 -43.8107,-27.97696 -14.1989,-9.32782 -28.0049,-18.61793 -41.4138,-27.82847 -13.4108,-9.20702 -26.4338,-18.32063 -38.9991,-27.41037 -12.58,-9.06449 -24.7549,-18.01587 -36.5168,-26.823 -11.7697,-8.79436 -23.1188,-17.45759 -34.0133,-25.9981 -43.6507,-34.05192 -80.5223,-65.34654 -110.2203,-91.91837 -3.7215,-3.30889 -7.3176,-6.56336 -10.8075,-9.73143 -3.4992,-3.15497 -6.8765,-6.24571 -10.1426,-9.25272 -3.2753,-2.99402 -6.41,-5.94415 -9.4413,-8.79542 -3.0376,-2.84244 -5.9602,-5.60157 -8.7633,-8.27922 -11.2348,-10.6798 -20.667604,-19.90344 -28.252804,-27.45223 -7.6012,-7.52941 -13.2755,-13.48186 -17.1052,-17.48496 -3.8191,-4.00854 -5.7663,-6.13514 -5.7663,-6.13514 l 2.3114,-2.67562 c 0,0 2.0141,1.96746 6.0207,5.72503 4.0016,3.75543 9.9782,9.28968 17.8705,16.39172 15.784604,14.20152 39.233204,34.6837 69.868104,59.67335 30.634,24.98422 68.4565,54.47969 112.9656,86.56531 22.254,16.04095 46.1789,32.72614 71.7062,49.79748 25.5294,17.06612 52.6143,34.60157 81.2533,52.21009 57.2611,35.23282 120.6536,70.9533 189.4401,104.79632 68.7733,33.83503 142.9589,65.78523 221.4639,93.26443 78.4819,27.4814 161.30616,50.4583 246.74476,66.378 85.4091,15.9489 173.4346,24.7622 261.5114,24.6586 88.0763,0.088 176.1016,-8.7131 261.5103,-24.6649 85.4384,-15.9193 168.2625,-38.8955 246.7443,-66.3765 78.505,-27.4788 152.6906,-59.4283 221.4637,-93.26314 68.7866,-33.84249 132.1792,-69.56265 189.4404,-104.79504 28.6382,-17.60981 55.7258,-35.14057 81.2517,-52.21276 25.5276,-17.07091 49.4526,-33.75568 71.7068,-49.79631 44.5095,-32.08477 82.3323,-61.57959 112.9668,-86.56328 30.6353,-24.98923 54.084,-45.47087 69.8689,-59.67218 7.8923,-7.10194 13.8691,-12.63608 17.8706,-16.39151 4.0063,-3.76002 6.0239,-5.72791 6.0239,-5.72791 l 2.3044,2.68212 z" /></g></svg>